<?xml version="1.0" encoding="UTF-8"?>
<!-- Generator: Adobe Illustrator 19.0.1, SVG Export Plug-In . SVG Version: 6.00 Build 0)  -->
<svg version="1.1" id="Capa_1" xmlns="http://www.w3.org/2000/svg" xmlns:xlink="http://www.w3.org/1999/xlink" x="0px" y="0px" viewBox="0 0 250 250" style="enable-background:new 0 0 250 250;" xml:space="preserve">
<style type="text/css">
	.st0{fill:#E42A2F;}
</style>
<g>
	<g>
		<path class="st0" d="M73.5,121.1c-4.3,0-7.7-3.5-7.7-7.7c0-4.3,3.5-7.7,7.7-7.7c4.3,0,7.7,3.5,7.7,7.7    C81.2,117.7,77.8,121.1,73.5,121.1z M73.5,109.6c-2.1,0-3.9,1.7-3.9,3.9c0,2.1,1.7,3.9,3.9,3.9s3.9-1.7,3.9-3.9    C77.4,111.3,75.6,109.6,73.5,109.6z"/>
	</g>
	<g>
		<path class="st0" d="M96.7,94.1c-4.3,0-7.7-3.5-7.7-7.7c0-4.3,3.5-7.7,7.7-7.7c4.3,0,7.7,3.5,7.7,7.7    C104.4,90.6,101,94.1,96.7,94.1z M96.7,82.5c-2.1,0-3.9,1.7-3.9,3.9s1.7,3.9,3.9,3.9c2.1,0,3.9-1.7,3.9-3.9S98.8,82.5,96.7,82.5z"/>
	</g>
	<g>
		<path class="st0" d="M141.1,109.6c-4.3,0-7.7-3.5-7.7-7.7c0-4.3,3.5-7.7,7.7-7.7s7.7,3.5,7.7,7.7    C148.9,106.1,145.4,109.6,141.1,109.6z M141.1,98c-2.1,0-3.9,1.7-3.9,3.9s1.7,3.9,3.9,3.9c2.1,0,3.9-1.7,3.9-3.9    S143.3,98,141.1,98z"/>
	</g>
	<g>
		<path class="st0" d="M164.3,80.6c-4.3,0-7.7-3.5-7.7-7.7c0-4.3,3.5-7.7,7.7-7.7s7.7,3.5,7.7,7.7C172,77.1,168.6,80.6,164.3,80.6z     M164.3,69c-2.1,0-3.9,1.7-3.9,3.9s1.7,3.9,3.9,3.9c2.1,0,3.9-1.7,3.9-3.9S166.4,69,164.3,69z"/>
	</g>
	<g>
		<path class="st0" d="M201,70.9c-4.3,0-7.7-3.5-7.7-7.7s3.5-7.7,7.7-7.7s7.7,3.5,7.7,7.7S205.3,70.9,201,70.9z M201,59.3    c-2.1,0-3.9,1.7-3.9,3.9c0,2.1,1.7,3.9,3.9,3.9c2.1,0,3.9-1.7,3.9-3.9C204.9,61.1,203.2,59.3,201,59.3z"/>
	</g>
	<g>
		<path class="st0" d="M76.7,110.5c-0.5,0-0.9-0.2-1.3-0.5c-0.8-0.7-0.8-1.9-0.1-2.7l16.7-18c0.7-0.8,1.9-0.8,2.7-0.1    c0.8,0.7,0.8,1.9,0.1,2.7l-16.7,18C77.8,110.3,77.3,110.5,76.7,110.5z"/>
	</g>
	<g>
		<path class="st0" d="M135,102.2c-0.2,0-0.4,0-0.7-0.1l-6.7-2.4c-1-0.4-1.5-1.5-1.2-2.5c0.4-1,1.5-1.5,2.5-1.2l6.7,2.4    c1,0.4,1.5,1.5,1.2,2.5C136.6,101.7,135.8,102.2,135,102.2z"/>
	</g>
	<g>
		<path class="st0" d="M117,95.7c-0.2,0-0.4,0-0.7-0.1l-15.2-5.4c-1-0.4-1.5-1.5-1.2-2.5c0.4-1,1.5-1.5,2.5-1.2l15.2,5.4    c1,0.4,1.5,1.5,1.2,2.5C118.6,95.2,117.8,95.7,117,95.7z"/>
	</g>
	<g>
		<path class="st0" d="M144,99.4c-0.4,0-0.9-0.2-1.3-0.5c-0.8-0.7-0.9-1.9-0.2-2.7l17.1-20.2c0.7-0.8,1.9-0.9,2.7-0.2    c0.8,0.7,0.9,1.9,0.2,2.7l-17.1,20.2C145.1,99.2,144.6,99.4,144,99.4z"/>
	</g>
	<g>
		<path class="st0" d="M170.2,73c-0.9,0-1.6-0.6-1.9-1.5c-0.3-1,0.4-2.1,1.4-2.3l25.1-6.4c1-0.3,2.1,0.4,2.3,1.4    c0.3,1-0.4,2.1-1.4,2.3l-25.1,6.4C170.6,73,170.4,73,170.2,73z"/>
	</g>
	<g>
		<path class="st0" d="M85.5,145c-10.2,0-20-3.5-28-10c-19-15.5-21.8-43.5-6.3-62.5c15.5-19,43.5-21.8,62.5-6.3    c9.2,7.5,14.9,18.1,16.1,29.9c1.2,11.8-2.3,23.4-9.8,32.5l0,0c-7.5,9.2-18.1,14.9-29.9,16.1C88.6,144.9,87,145,85.5,145z M85.7,60    c-11.8,0-23.4,5.1-31.4,14.9c-14.1,17.3-11.6,42.9,5.7,57c8.4,6.8,18.9,10,29.7,8.9c10.8-1.1,20.5-6.3,27.3-14.7l0,0    c6.9-8.4,10-18.9,8.9-29.7c-1.1-10.8-6.3-20.5-14.7-27.3C103.8,63,94.7,60,85.7,60z"/>
	</g>
	<g>
		<path class="st0" d="M85.6,136c-8.1,0-16-2.8-22.4-8c-7.3-6-11.9-14.5-12.8-23.9c-0.9-9.4,1.8-18.7,7.8-26    c12.4-15.1,34.8-17.4,49.9-5c7.3,6,11.9,14.5,12.8,23.9c0.9,9.4-1.8,18.7-7.8,26c-6,7.3-14.5,11.9-23.9,12.8    C88,136,86.8,136,85.6,136z M85.7,69c-1.1,0-2.1,0.1-3.2,0.2c-8.4,0.8-16,4.9-21.3,11.4c-5.3,6.5-7.8,14.8-7,23.2    c0.8,8.4,4.9,16,11.4,21.3c6.5,5.3,14.8,7.8,23.2,7c8.4-0.8,16-4.9,21.3-11.4c11-13.5,9-33.4-4.5-44.5C99.9,71.4,92.9,69,85.7,69z    "/>
	</g>
	<g>
		<path class="st0" d="M181.3,194.5c-0.4,0-0.9-0.2-1.2-0.4l-54.4-44.5c-0.8-0.7-0.9-1.9-0.3-2.7l13.6-16.6c0.3-0.4,0.8-0.6,1.3-0.7    c0.5-0.1,1,0.1,1.4,0.4l54.4,44.5c0.8,0.7,0.9,1.9,0.3,2.7l-13.6,16.6c-0.3,0.4-0.8,0.6-1.3,0.7    C181.4,194.5,181.3,194.5,181.3,194.5z M129.6,147.9l51.4,42l11.2-13.7l-51.4-42L129.6,147.9z"/>
	</g>
	<g>
		<g>
			<path class="st0" d="M129.1,145.8c-0.4,0-0.9-0.1-1.2-0.4L114,134.1c-0.8-0.7-0.9-1.9-0.3-2.7c0.7-0.8,1.9-1,2.7-0.3l13.8,11.3     c0.8,0.7,0.9,1.9,0.3,2.7C130.2,145.6,129.6,145.8,129.1,145.8z"/>
		</g>
		<g>
			<path class="st0" d="M136.7,136.5c-0.4,0-0.9-0.1-1.2-0.4l-13.8-11.3c-0.8-0.7-0.9-1.9-0.3-2.7c0.7-0.8,1.9-1,2.7-0.3l13.8,11.3     c0.8,0.7,0.9,1.9,0.3,2.7C137.8,136.2,137.3,136.5,136.7,136.5z"/>
		</g>
	</g>
</g>
</svg>